
{
    "apiVersion": "1.0",
    "context": "DewarpingSDK",
    "data": {
        "items": [
            {
                "description": "Standard Client Dewarp transform table with blending",
                "id": "Client Dewarp"
            }
        ]
    },
    "method": "listTables"
}